Wall time,Step,Value
1539449744.46139,101,9.656813621520996
1539449754.4518726,201,10.009319305419922
1539449763.5585363,301,10.980884552001953
1539449766.3779724,415,40.433841705322266
1539449768.7868893,523,44.83319854736328
1539449771.287659,629,42.38689422607422
1539449773.7551043,731,41.33834457397461
1539449776.244541,836,42.17820739746094
1539449778.7401776,946,44.07691955566406
1539449781.2716093,1047,39.898284912109375
1539449783.7202554,1149,41.65574645996094
1539449786.1192317,1255,44.18558883666992
1539449788.5523412,1358,42.33258056640625
1539449790.987458,1459,41.47643280029297
1539449793.413826,1563,42.86260223388672
1539449795.8984308,1666,41.455204010009766
1539449798.4205823,1771,41.63107681274414
1539449800.872409,1873,41.60160446166992
1539449803.2642121,1973,41.80964279174805
1539449805.716059,2073,40.78607177734375
1539449808.2290218,2175,40.58934783935547
1539449811.1594346,2290,39.2435302734375
1539449813.7127929,2391,39.555564880371094
1539449816.172429,2493,41.46938705444336
1539449818.9226136,2601,39.27009582519531
1539449821.4479382,2707,41.97491455078125
1539449823.9092226,2808,41.03533935546875
1539449826.3792832,2909,40.88975143432617
1539449828.8465426,3011,41.34148406982422
1539449831.2596035,3112,41.85542297363281
1539449834.2254653,3226,38.437583923339844
1539449836.7330272,3328,40.6778450012207
1539449839.2041807,3433,42.489559173583984
1539449841.687612,3534,40.66924285888672
1539449844.0919418,3635,42.00736999511719
1539449846.5185268,3737,42.03460693359375
1539449849.0341167,3837,39.752071380615234
1539449851.9101708,3956,41.37614440917969
1539449854.3724828,4056,40.612144470214844
1539449856.8906984,4156,39.71078109741211
1539449859.4137375,4264,42.80629348754883
1539449861.9007783,4365,40.610103607177734
1539449864.4210362,4473,42.8524284362793
1539449866.9352665,4582,43.35303497314453
1539449869.8770921,4696,38.751502990722656
1539449872.3443897,4797,40.935420989990234
1539449874.8613446,4898,40.12799835205078
1539449877.3879163,5009,43.932918548583984
1539449879.8890886,5112,41.18122100830078
1539449882.321169,5212,41.11697006225586
1539449884.763152,5314,41.76901626586914
1539449887.235421,5416,41.25764846801758
1539449889.7448792,5520,41.4430046081543
1539449892.1709585,5626,43.69189453125
1539449894.6203346,5732,43.2763786315918
1539449897.0496712,5837,43.221736907958984
1539449899.5448203,5937,40.07779312133789
1539449902.5224493,6049,37.61381530761719
1539449905.0371053,6159,43.743465423583984
1539449907.5279615,6263,41.752685546875
1539449910.0005586,6369,42.87025451660156
1539449912.4897017,6475,42.58562088012695
1539449914.9280515,6576,41.42069625854492
1539449917.4623055,6679,40.64289093017578
1539449920.3068795,6788,38.31898498535156
1539449922.7534106,6891,42.10011672973633
1539449925.268621,6999,42.939517974853516
1539449927.7475529,7106,43.162986755371094
1539449930.2680032,7206,39.67549133300781
1539449933.1529357,7323,40.555419921875
1539449935.5876923,7426,42.30390167236328
1539449938.007487,7526,41.32602310180664
1539449940.4049585,7630,43.37980270385742
1539449942.8618567,7731,41.108333587646484
1539449945.3384392,7836,42.3965950012207
1539449947.8361793,7938,40.83708190917969
1539449950.283714,8046,44.12593460083008
1539449952.7709022,8152,42.618568420410156
1539449955.2556045,8259,43.06387710571289
1539449957.7236793,8364,42.543243408203125
1539449960.1495593,8464,41.22169876098633
1539449962.481778,8566,43.735206604003906
1539449964.7854466,8666,43.40892791748047
1539449967.2852063,8776,44.004432678222656
1539449970.064608,8891,41.37651443481445
1539449972.455425,8994,43.08061218261719
1539449974.8515627,9096,42.568321228027344
1539449977.19209,9206,46.99845504760742
1539449979.6562126,9311,42.611122131347656
1539449982.0514786,9413,42.58401107788086
1539449984.4885669,9521,44.315399169921875
1539449986.8830822,9622,42.18113327026367
1539449989.3563657,9725,41.643409729003906
1539449991.800491,9828,42.141998291015625
1539449994.2355418,9934,43.530853271484375
