Wall time,Step,Value
1539452206.1144145,103,9.505820274353027
1539452216.2256734,203,9.889760971069336
1539452225.548498,303,10.726323127746582
1539452230.5136268,403,20.140403747558594
1539452235.378345,503,20.556190490722656
1539452240.3022184,604,20.51229476928711
1539452245.3507392,705,20.005830764770508
1539452250.3945847,810,20.817476272583008
1539452255.2736216,911,20.700836181640625
1539452260.6657448,1014,19.101974487304688
1539452265.7532997,1119,20.63858985900879
1539452270.8358085,1220,19.87247085571289
1539452275.931067,1325,20.607006072998047
1539452280.868392,1425,20.253807067871094
1539452285.8646905,1525,20.0147762298584
1539452290.946238,1630,20.663034439086914
1539452295.922914,1730,20.093711853027344
1539452300.8488958,1835,21.315752029418945
1539452305.8021832,1935,20.188539505004883
1539452310.7755132,2035,20.107175827026367
1539452315.9347456,2140,20.352075576782227
1539452320.9190333,2240,20.06283187866211
1539452325.7942433,2340,20.511930465698242
1539452330.7513638,2440,20.172956466674805
1539452335.5059052,2540,21.032848358154297
1539452340.4341269,2640,20.2910213470459
1539452345.4103868,2741,20.296361923217773
1539452350.4814193,2845,20.508684158325195
1539452355.4881902,2946,20.172658920288086
1539452360.447768,3050,20.969797134399414
1539452365.3535452,3150,20.383878707885742
1539452370.3246543,3250,20.116262435913086
1539452375.2685642,3350,20.227094650268555
1539452380.213698,3455,21.232715606689453
1539452385.2563443,3560,20.82244110107422
1539452390.1160557,3660,20.577392578125
1539452395.1548777,3763,20.441242218017578
1539452400.142194,3865,20.452098846435547
1539452405.1040635,3965,20.153532028198242
1539452409.9764102,4065,20.52397346496582
1539452414.8891377,4165,20.355520248413086
1539452419.7340035,4265,20.6401424407959
1539452424.7713811,4370,20.844202041625977
1539452429.6864786,4470,20.345598220825195
1539452434.6766238,4570,20.039447784423828
1539452439.559434,4675,21.50387954711914
1539452444.4703045,4775,20.36310577392578
1539452449.4022062,4875,20.276180267333984
1539452454.4051554,4980,20.987449645996094
1539452459.178546,5080,20.949491500854492
1539452464.0937834,5180,20.344989776611328
1539452468.9285684,5280,20.68333625793457
1539452473.8016891,5380,20.520795822143555
1539452478.6335373,5480,20.69594383239746
1539452483.6595147,5580,19.896820068359375
1539452488.7482126,5685,20.6339054107666
1539452493.6685803,5787,20.730024337768555
1539452498.7010157,5890,20.467365264892578
1539452503.6271987,5990,20.30008316040039
1539452508.4823847,6090,20.59600257873535
1539452513.307387,6190,20.725379943847656
1539452518.2006495,6293,21.049413681030273
1539452522.9919767,6393,20.871309280395508
1539452527.8223433,6493,20.702043533325195
1539452532.6733956,6595,21.026403427124023
1539452537.5938358,6695,20.323585510253906
1539452542.458398,6797,20.967750549316406
1539452547.3338656,6899,20.921018600463867
1539452552.2923784,6999,20.16750717163086
1539452557.1291842,7099,20.67477035522461
1539452562.0511327,7199,20.31704330444336
1539452567.0041604,7304,21.199199676513672
1539452571.9114642,7404,20.377782821655273
1539452576.8455305,7509,21.280616760253906
1539452581.7507038,7609,20.386577606201172
1539452586.7582512,7714,20.968616485595703
1539452591.5924397,7814,20.685745239257812
1539452596.510799,7914,20.331960678100586
1539452601.35365,8019,21.68150520324707
1539452606.0509703,8121,21.714712142944336
1539452610.8412678,8221,20.875349044799805
1539452615.7585368,8321,20.33642578125
1539452620.5862591,8421,20.71378517150879
1539452625.465372,8524,21.110509872436523
1539452630.2530282,8624,20.886932373046875
1539452635.0263731,8724,20.949615478515625
1539452639.7676837,8824,21.09117317199707
1539452644.491963,8924,21.1676025390625
1539452649.165894,9024,21.39491844177246
1539452653.7734215,9124,21.703594207763672
1539452658.4726653,9224,21.280057907104492
1539452663.4104855,9329,21.264490127563477
1539452668.2447248,9433,21.513383865356445
1539452672.9832246,9534,21.31461524963379
1539452677.7942586,9634,20.785490036010742
1539452682.4382331,9739,22.6099853515625
1539452687.1996393,9839,21.00211524963379
1539452692.0475986,9939,20.627281188964844
