Wall time,Step,Value
1539452195.595801,3,0.0
1539452206.1176693,103,0.6075800061225891
1539452216.2276063,203,0.7240849733352661
1539452225.5499802,303,0.8864736557006836
1539452230.515313,403,0.8607478737831116
1539452235.3798692,503,0.8812739849090576
1539452240.3177829,606,0.8886966109275818
1539452245.3664632,706,0.8954834342002869
1539452250.406052,811,0.9013687968254089
1539452255.2884083,912,0.9051467180252075
1539452260.6811962,1015,0.9079534411430359
1539452265.7692163,1120,0.9110012054443359
1539452270.8510823,1221,0.9137670993804932
1539452275.9454901,1326,0.9162459373474121
1539452280.8832877,1426,0.9183487892150879
1539452285.8793674,1526,0.9203102588653564
1539452290.9616306,1631,0.9223595857620239
1539452295.9377062,1731,0.9240179657936096
1539452300.865066,1836,0.9257189035415649
1539452305.8151035,1936,0.9272235035896301
1539452310.7905042,2036,0.9286367893218994
1539452315.9489944,2141,0.930148184299469
1539452320.9347367,2241,0.9314059019088745
1539452325.8098376,2341,0.9325812458992004
1539452330.7663972,2441,0.933722198009491
1539452335.5211086,2541,0.9347735047340393
1539452340.4492323,2641,0.9358412623405457
1539452345.4268064,2743,0.9368494749069214
1539452350.496938,2846,0.937751293182373
1539452355.5051792,2948,0.9386586546897888
1539452360.4576604,3051,0.9394851922988892
1539452365.36981,3151,0.9403391480445862
1539452370.3396451,3251,0.941166877746582
1539452375.2842963,3351,0.941892683506012
1539452380.228503,3456,0.9426537156105042
1539452385.2696629,3561,0.9433608055114746
1539452390.1311917,3661,0.9439902305603027
1539452395.1689515,3766,0.9446911811828613
1539452400.1576822,3866,0.9453434944152832
1539452405.117974,3966,0.9459459185600281
1539452409.9910927,4066,0.9465411305427551
1539452414.9004664,4166,0.9471105337142944
1539452419.749344,4266,0.9476850032806396
1539452424.7870402,4371,0.9482226967811584
1539452429.700548,4471,0.9487634897232056
1539452434.693749,4571,0.9492633938789368
1539452439.5758872,4676,0.9497458338737488
1539452444.4856606,4776,0.9502211213111877
1539452449.41673,4876,0.9506996273994446
1539452454.420398,4981,0.9511563181877136
1539452459.1936088,5081,0.9515535831451416
1539452464.109046,5181,0.9519912004470825
1539452468.9391365,5281,0.9523935317993164
1539452473.8157728,5381,0.9527786374092102
1539452478.6485667,5481,0.9531649351119995
1539452483.6747274,5581,0.9535345435142517
1539452488.7634366,5686,0.9539070725440979
1539452493.6903565,5789,0.954258918762207
1539452498.7163656,5891,0.9546123743057251
1539452503.6429043,5991,0.9549466967582703
1539452508.4966545,6091,0.9552628397941589
1539452513.3221776,6191,0.9555667042732239
1539452518.216535,6295,0.9558871984481812
1539452523.452298,6400,0.9561895132064819
1539452528.3144677,6501,0.9564666748046875
1539452533.1872811,6606,0.9567703008651733
1539452538.0524285,6706,0.9570626020431519
1539452542.8958595,6807,0.9573294520378113
1539452547.8469982,6910,0.9577351212501526
1539452552.7876277,7010,0.9579979181289673
1539452557.6422453,7110,0.9582549333572388
1539452562.5905771,7215,0.9585076570510864
1539452567.4759197,7315,0.9587416648864746
1539452572.431427,7415,0.9589825868606567
1539452577.3608718,7520,0.9592309594154358
1539452582.258037,7620,0.9594554901123047
1539452587.2569172,7725,0.9596943259239197
1539452592.1092794,7825,0.9599124789237976
1539452597.0363114,7926,0.9601227641105652
1539452601.8073041,8028,0.9603311419487
1539452606.5575411,8131,0.9599806070327759
1539452611.2928,8231,0.9600540995597839
1539452616.267011,8331,0.9601886868476868
1539452621.0940437,8431,0.9603462815284729
1539452625.9631262,8535,0.9605101943016052
1539452630.7642136,8635,0.9606839418411255
1539452635.5141337,8735,0.9608508944511414
1539452640.25413,8835,0.9610289931297302
1539452644.997943,8935,0.9611928462982178
1539452649.6107824,9035,0.9613534808158875
1539452654.2967875,9135,0.9615232944488525
1539452658.9924653,9235,0.9616853594779968
1539452663.869566,9340,0.9618539810180664
1539452668.7454796,9445,0.9620184302330017
1539452673.431669,9545,0.9621805548667908
1539452678.3195689,9645,0.9623271226882935
1539452682.942626,9750,0.9624868631362915
1539452687.715657,9850,0.9626396298408508
1539452692.4962711,9950,0.9627865552902222
