Wall time,Step,Value
1539449390.8183105,25,0.26499998569488525
1539449393.011372,130,0.572907567024231
1539449395.4438183,248,0.6892288327217102
1539449397.934503,366,0.7386112809181213
1539449400.0144687,467,0.7769232392311096
1539449402.4345682,582,0.8013620376586914
1539449404.8897293,697,0.8181326389312744
1539449406.8915336,798,0.8290280103683472
1539449409.2664742,905,0.8394709229469299
1539449411.6854274,1020,0.8487839698791504
1539449414.0290008,1138,0.8568152785301208
1539449416.387803,1255,0.8636607527732849
1539449418.796656,1372,0.8689479827880859
1539449421.2294617,1491,0.8751183748245239
1539449423.5823064,1605,0.8797872066497803
1539449425.6306944,1706,0.8834804892539978
1539449428.1152217,1821,0.8870558738708496
1539449430.5806043,1933,0.8904135227203369
1539449432.9770186,2051,0.8933700919151306
1539449434.9978774,2152,0.8964723944664001
1539449437.3811104,2265,0.8994045853614807
1539449439.8358877,2381,0.9021233320236206
1539449442.2980528,2502,0.9047536253929138
1539449444.7132874,2615,0.9070433974266052
1539449447.1123857,2734,0.9091591238975525
1539449449.0836122,2835,0.9108976125717163
1539449451.4921079,2948,0.9128029942512512
1539449453.9329321,3052,0.9144607186317444
1539449456.3711069,3168,0.9161930084228516
1539449458.8125916,3285,0.9178404808044434
1539449461.2477667,3401,0.9192168712615967
1539449463.1899714,3501,0.9207213521003723
1539449465.5335314,3609,0.922035276889801
1539449468.010535,3719,0.9232485294342041
1539449470.4376466,3835,0.9245157241821289
1539449472.8188105,3944,0.9256004691123962
1539449475.0978553,4057,0.9266682863235474
1539449477.4880326,4163,0.9277415871620178
1539449479.8784542,4272,0.9287365674972534
1539449482.203925,4382,0.9297376275062561
1539449484.5550284,4496,0.9306925535202026
1539449486.8675458,4601,0.9314921498298645
1539449489.21857,4716,0.932380199432373
1539449491.510183,4829,0.9332665801048279
1539449493.932078,4943,0.9340997934341431
1539449496.2956877,5051,0.9348656535148621
1539449498.664454,5165,0.9355997443199158
1539449501.0495687,5270,0.936307966709137
1539449503.4148145,5376,0.936956524848938
1539449505.927904,5476,0.9375879764556885
1539449508.1950722,5578,0.938170850276947
1539449510.5483525,5694,0.9388453364372253
1539449512.857689,5803,0.9394319653511047
1539449515.2220092,5917,0.9400354027748108
1539449517.5623343,6034,0.9406373500823975
1539449519.960126,6149,0.941222071647644
1539449522.2431874,6259,0.9417465329170227
1539449524.5417745,6367,0.9422927498817444
1539449526.8964791,6478,0.9427953958511353
1539449529.3209085,6591,0.9433152675628662
1539449531.6172442,6704,0.9438123106956482
1539449533.9650962,6816,0.9442556500434875
1539449536.3045914,6927,0.944659411907196
1539449538.613684,7040,0.9450973272323608
1539449540.868305,7154,0.9455271363258362
1539449543.1712365,7262,0.9459348917007446
1539449545.1475658,7363,0.9463108777999878
1539449547.4947183,7466,0.9466928243637085
1539449549.7718346,7571,0.9470381140708923
1539449552.2310023,7680,0.9474301338195801
1539449554.5081248,7786,0.9477686882019043
1539449556.9354186,7896,0.9481275081634521
1539449559.366037,8004,0.9484707713127136
1539449561.72042,8113,0.9488191604614258
1539449564.0711489,8227,0.949286699295044
1539449566.4023602,8341,0.9496309757232666
1539449568.8002183,8454,0.9499872326850891
1539449571.2135787,8571,0.950272798538208
1539449573.7088702,8689,0.9506034255027771
1539449576.1521578,8801,0.9509551525115967
1539449578.5515773,8915,0.9512594938278198
1539449580.9792805,9024,0.9515517950057983
1539449583.4015565,9141,0.9518654346466064
1539449585.7512796,9245,0.952150285243988
1539449588.1578207,9356,0.9521999359130859
1539449590.5685282,9461,0.9523559212684631
1539449592.8602011,9564,0.9525566101074219
1539449595.2450197,9666,0.9527391791343689
1539449597.5377426,9774,0.952976644039154
1539449599.8676348,9880,0.9532105922698975
1539449602.2474744,9996,0.9534651041030884
