Wall time,Step,Value
1539450598.334967,8,2.3209965229034424
1539450601.888208,110,0.9422686696052551
1539450605.7663085,215,0.36711007356643677
1539450609.3084183,317,0.6811926960945129
1539450613.152336,420,0.2607552111148834
1539450617.0520916,530,0.2804414629936218
1539450621.05277,640,0.3238464593887329
1539450625.0288599,750,0.26809462904930115
1539450629.0454435,860,0.24235552549362183
1539450632.9065032,970,0.2362503558397293
1539450636.7545938,1080,0.3857043981552124
1539450640.8361216,1190,0.18904371559619904
1539450644.7977726,1300,0.23033693432807922
1539450648.8186066,1410,0.12211070209741592
1539450652.668808,1519,0.10083289444446564
1539450656.6430643,1628,0.2626459002494812
1539450660.1497679,1730,0.15294571220874786
1539450664.1200945,1838,0.07891767472028732
1539450667.6382751,1940,0.18140104413032532
1539450671.691518,2050,0.06238134205341339
1539450675.646487,2159,0.15503999590873718
1539450679.1594481,2260,0.16218334436416626
1539450682.6994972,2360,0.09803800284862518
1539450686.6239154,2470,0.12218055129051208
1539450690.5592113,2580,0.12612242996692657
1539450694.46382,2690,0.132210373878479
1539450698.5237749,2799,0.2161879688501358
1539450702.4864864,2908,0.17239204049110413
1539450705.8673508,3010,0.052140962332487106
1539450709.8439934,3120,0.2457154393196106
1539450713.7915003,3229,0.09754865616559982
1539450717.7371716,3339,0.10587022453546524
1539450721.6288304,3449,0.08711123466491699
1539450725.5225768,3559,0.12826432287693024
1539450729.499746,3669,0.14451459050178528
1539450733.5238056,3779,0.12383655458688736
1539450737.554965,3889,0.09947791695594788
1539450741.1463351,3991,0.025162775069475174
1539450744.70264,4091,0.13194364309310913
1539450748.6342432,4200,0.05527523532509804
1539450752.7056196,4310,0.036689527332782745
1539450756.735741,4420,0.05535510927438736
1539450760.7051864,4530,0.026532601565122604
1539450764.7090142,4640,0.11736239492893219
1539450768.7040102,4750,0.05583340302109718
1539450772.6882284,4860,0.03539755940437317
1539450776.255959,4960,0.1077071875333786
1539450780.2358441,5069,0.03796771168708801
1539450784.2155035,5179,0.17433759570121765
1539450788.1590958,5289,0.05796195566654205
1539450792.1412382,5399,0.0353812649846077
1539450796.115182,5509,0.11061644554138184
1539450800.2114942,5619,0.027518101036548615
1539450804.2443898,5729,0.05083104595541954
1539450807.7218256,5830,0.11173003911972046
1539450811.6648924,5936,0.056169673800468445
1539450815.1782758,6036,0.04104750603437424
1539450819.1652963,6145,0.1261388510465622
1539450823.059063,6255,0.09766077250242233
1539450826.9849806,6365,0.05452803149819374
1539450830.9783595,6474,0.03591775521636009
1539450834.530972,6575,0.13009029626846313
1539450838.5835404,6684,0.0751207172870636
1539450842.5888405,6794,0.06738785654306412
1539450846.1105871,6895,0.05035256966948509
1539450850.1080346,7003,0.045660581439733505
1539450853.6814556,7105,0.0900733470916748
1539450857.7016685,7213,0.028232796117663383
1539450861.2650645,7315,0.030984913930296898
1539450865.2405846,7425,0.07489585131406784
1539450869.1511345,7531,0.037481412291526794
1539450873.0062668,7638,0.04211355745792389
1539450876.5237586,7740,0.0456070676445961
1539450880.0606697,7842,0.055492088198661804
1539450883.9935358,7950,0.04786551371216774
1539450887.9052138,8060,0.020648129284381866
1539450891.8695257,8168,0.018640335649251938
1539450895.3903513,8269,0.07455280423164368
1539450899.2414618,8375,0.008723528124392033
1539450902.694117,8475,0.06910093128681183
1539450906.1263614,8577,0.04317547753453255
1539450909.9922023,8685,0.030573127791285515
1539450913.9165072,8795,0.06894834339618683
1539450917.9012125,8904,0.08779430389404297
1539450921.7976198,9014,0.028526104986667633
1539450925.3036807,9116,0.06647098064422607
1539450929.2538054,9224,0.0365917831659317
1539450932.8408978,9329,0.0642663836479187
1539450936.804564,9435,0.05660494789481163
1539450940.377481,9535,0.02372930198907852
1539450943.8285654,9636,0.05025918409228325
1539450947.7214262,9741,0.029239466413855553
1539450951.205669,9841,0.024548932909965515
1539450954.9918058,9947,0.10269283503293991
