Wall time,Step,Value
1539449734.1090794,1,2.283693552017212
1539449744.4642844,101,0.826651394367218
1539449754.4539938,201,0.3917771875858307
1539449763.5599635,301,0.8441329002380371
1539449766.3797128,415,0.7341518402099609
1539449768.8015568,525,0.33334410190582275
1539449771.3024364,630,0.33865904808044434
1539449773.770448,733,0.25056228041648865
1539449776.2608585,838,0.22611838579177856
1539449778.755014,947,0.3180130124092102
1539449781.7042542,1062,0.29919642210006714
1539449784.2251978,1172,0.11753667891025543
1539449786.6411831,1277,0.1626613736152649
1539449789.0223172,1378,0.1379658728837967
1539449791.4520383,1479,0.3448292016983032
1539449793.9013884,1582,0.11169013381004333
1539449796.434934,1686,0.07600864768028259
1539449798.945061,1790,0.1553165167570114
1539449801.7587283,1907,0.08153236657381058
1539449804.1856072,2012,0.13364556431770325
1539449806.73591,2114,0.09934670478105545
1539449809.2106798,2219,0.22567641735076904
1539449812.1586986,2326,0.1511864811182022
1539449814.6774461,2428,0.1409342885017395
1539449817.518289,2546,0.051426853984594345
1539449819.9585228,2647,0.10122425854206085
1539449822.4527476,2748,0.09708183258771896
1539449824.926163,2848,0.15841259062290192
1539449827.3687532,2948,0.13607895374298096
1539449829.7974658,3049,0.13937696814537048
1539449832.2686832,3150,0.1089046448469162
1539449835.213341,3264,0.1284131109714508
1539449837.7609098,3373,0.09743714332580566
1539449840.2529151,3476,0.0979606881737709
1539449843.066449,3585,0.10243482887744904
1539449845.5700047,3694,0.18077780306339264
1539449848.0259244,3798,0.10050681978464127
1539449850.477872,3898,0.09480638802051544
1539449852.951027,4002,0.12919263541698456
1539449855.8814955,4117,0.07989166676998138
1539449858.4486713,4226,0.03996627405285835
1539449860.9399424,4327,0.03797212243080139
1539449863.3920858,4430,0.12186453491449356
1539449865.9620183,4541,0.15656737983226776
1539449868.8973892,4660,0.07401777058839798
1539449871.8195624,4772,0.21128614246845245
1539449874.3558617,4882,0.119243323802948
1539449876.909265,4992,0.10319070518016815
1539449879.406691,5092,0.15438872575759888
1539449881.838115,5192,0.04463734105229378
1539449884.3042374,5293,0.1343003511428833
1539449886.7501233,5396,0.0837424248456955
1539449889.253846,5502,0.04518313705921173
1539449891.6834106,5606,0.06538130342960358
1539449894.1851785,5714,0.0751258134841919
1539449896.582398,5817,0.14182943105697632
1539449899.546473,5937,0.15415014326572418
1539449902.5399718,6051,0.05743715912103653
1539449905.0532923,6160,0.06625225394964218
1539449907.543221,6264,0.055635496973991394
1539449910.0155933,6370,0.1728925257921219
1539449912.5039601,6476,0.02927071414887905
1539449914.944235,6577,0.0505627766251564
1539449917.9142625,6695,0.034024253487586975
1539449920.760303,6805,0.04207487404346466
1539449923.3017423,6916,0.17625465989112854
1539449925.7877667,7022,0.0344436950981617
1539449928.2537117,7125,0.03297354280948639
1539449930.8144722,7227,0.07335079461336136
1539449933.1976933,7328,0.038908038288354874
1539449935.6162162,7428,0.09512326121330261
1539449938.035589,7528,0.059517063200473785
1539449940.4207532,7632,0.021436817944049835
1539449942.8904407,7733,0.017003994435071945
1539449945.3548899,7837,0.08800272643566132
1539449947.8517783,7939,0.02832343615591526
1539449950.2969785,8047,0.076664999127388
1539449952.78603,8155,0.03509196266531944
1539449955.2713423,8262,0.025118395686149597
1539449957.7395623,8366,0.033802103251218796
1539449960.5674584,8484,0.03078734129667282
1539449962.94399,8585,0.08612216264009476
1539449965.2941573,8688,0.03280455991625786
1539449967.7525532,8794,0.04146140068769455
1539449970.1070285,8894,0.020716490224003792
1539449972.471328,8995,0.09996874630451202
1539449974.8670955,9097,0.04877965897321701
1539449977.2078056,9207,0.12122955173254013
1539449979.67152,9312,0.00406453013420105
1539449982.0673442,9415,0.036765024065971375
1539449984.5031705,9522,0.012822210788726807
1539449986.8982432,9624,0.05366666242480278
1539449989.3709197,9727,0.017858775332570076
1539449991.8159199,9829,0.010382669977843761
1539449994.2513585,9935,0.06796476244926453
